{
  "food": {
    "brand_name": "Cheesecake Factory",
    "food_id": "2780403",
    "food_name": "Brown Bread",
    "food_type": "Brand",
    "food_url": "http:\/\/www.fatsecret.com\/calories-nutrition\/cheesecake-factory\/brown-bread",
    "servings": {
      "serving": {
        "calories": "88",
        "carbohydrate": "19",
        "cholesterol": "0",
        "fat": "1",
        "fiber": "2",
        "measurement_description": "serving",
        "number_of_units": "1.000",
        "protein": "2",
        "serving_description": "2 slices",
        "serving_id": "2709707",
        "serving_url": "http:\/\/www.fatsecret.com\/calories-nutrition\/cheesecake-factory\/brown-bread",
        "sodium": "284",
        "sugar": "1"
      }
    }
  }
}